{
  "type": "charmandnail:zombie_fotf",
  "conditions": [
    {
      "condition": "minecraft:random_chance_with_looting",
      "chance": 0.1,
      "looting_multiplier": 0.05
    },
    {
      "condition": "minecraft:entity_properties",
      "predicate": {
        "type": "minecraft:zombie"
      },
      "entity": "this"
    }
  ],
  "item": "charmandnail:fury_of_the_fallen"
}